1 10 20
100 200 125
201 210 89
900 1000 174
400631 609743 470
617197 768813 509
354209 433496 449
219961 867471 525
93331 898342 525
690243 172548 509
113499 997260 525
724577 926942 525
21733 447816 449
364300 589349 470
209414 555979 470
397101 668729 509
702986 691226 442
969131 358159 525
680226 933041 525
418038 250157 449
97292 133007 354
894103 983137 507
749756 182645 509
893014 436657 525
359321 995349 525
624848 862417 525
721180 542239 509
463819 619661 470
648586 714622 504
172935 487631 449
888368 952560 507
865736 451319 525
754469 932008 525
878100 295040 525
222771 300348 443
143463 886255 525
19962 320906 443
706672 665131 504
424772 448858 400
561172 896991 525
931160 414276 525
449825 49801 449
739979 491009 509
389085 554974 470
496213 64284 449
265181 447587 449
647375 527441 509
347261 162273 443
868123 924548 476
301626 542600 470
739893 183321 509
354029 98596 443
399551 538812 470
184330 429288 449
323413 700983 509
438156 350551 449
152018 438846 449
431268 981198 525
738190 469077 509
334996 968625 525
721583 250928 509
55848 715044 509
868209 395969 525
327819 329505 353
872640 745309 525
245671 47922 443
310443 502156 449
972911 544594 525
626910 183307 509
605429 485758 470
303713 655022 509
476527 258187 449
578280 308116 470
322577 872230 525
341821 828181 509
284065 992355 525
813446 637510 504
525270 868052 525
163011 971896 525
284948 120276 443
501945 970654 525
133632 440337 449
15315 561056 470
619458 551710 447
534116 938069 525
601743 957518 525
172397 919538 525
132675 504209 449
21193 224646 386
227632 61099 386
647457 996189 525
747727 938877 525
861555 477549 525
548873 104506 470
446412 765485 509
234143 322274 407
894675 162708 525
320831 729513 509
361496 480453 449
522066 797556 509
35575 220252 386
770679 511827 509
359346 107095 443
423627 472050 444
564942 707470 509
