...........................
----------------------------------------------------------------------
Ran 27 tests in 180.943s

OK
Name             Stmts   Miss Branch BrPart  Cover   Missing
------------------------------------------------------------
Collatz.py          62      0     26      0   100%
TestCollatz.py     108      0      0      0   100%
------------------------------------------------------------
TOTAL              170      0     26      0   100%
